{
 "agentes":[
     {"agenteId": 1,
     "nombreAgente": "HUGO JAMIR"},
     {"agenteId": 2,
     "nombreAgente": "IVAN DARIO "},
     {"agenteId": 3,
     "nombreAgente": "LUIS GABRIEL SÁNCHEZ GALVIS"},
     {"agenteId": 4,
     "nombreAgente": "MIREYA RUBIO ACERO"},
     {"agenteId": 5,
     "nombreAgente": "MARCELA PEÑA RAMIREZ "},
     {"agenteId": 6,
     "nombreAgente": "BERNY JOSÉ MENDEZ CASTRO"},
     {"agenteId": 7,
     "nombreAgente": "RAFAEL DANIEL  BARRAGAN BOHORQUEZ"},
     {"agenteId": 8,
     "nombreAgente": "CARLOS AUGUSTO OSORIO"}
    ]
}