{
     "areas":[
         {"areaId": "1", "nombreArea": "Apiay1"},
         {"areaId": "2", "nombreArea": "Apiay2"},
         {"areaId": "3", "nombreArea": "Apiay3"},
         {"areaId": "4", "nombreArea": "Apiay4"},
         {"areaId": "5", "nombreArea": "Apiay5"},
         {"areaId": "6", "nombreArea": "Apiay6"},
         {"areaId": "7", "nombreArea": "Apiay7"},
        ]
    }