{
        "leyes": [
            {"leyId": 1, "leyName": "Impuesto transporte Crudo"},
            {"leyId": 2, "leyName": "Fondo becas Oil"},
            {"leyId": 3, "leyName": "Fondo becas Gas"},
            {"leyId": 4, "leyName": "Aporte Fondo Becas Ocensa"},
            {"leyId": 5, "leyName": "Aporte Fondo Becas Comercial"},
            {"leyId": 6, "leyName": "D2310/74 L75/86"},
            {"leyId": 7, "leyName": "D2310/74 L75/86 D058/90"},
            {"leyId": 8, "leyName": "D2310/74 L75/86 D3084/86"},
            {"leyId": 9, "leyName": "D2310/74 L75/86 D3086/86"},
            {"leyId": 10, "leyName": "D2310/74 L76/85"},
            {"leyId": 11, "leyName": "L10/61 D1246/74 D3083/86"},
            {"leyId": 12, "leyName": "L10/61 D1246/74 D3086/86"},
            {"leyId": 13, "leyName": "L10/61 D2310/74 D3083/86"},
            {"leyId": 14, "leyName": "L10/61 D2310/74 D3086/86"},
            {"leyId": 15, "leyName": "L75/86 D2310/74"},
            {"leyId": 16, "leyName": "A"},
            {"leyId": 17, "leyName": "LEY 141 ANTES CONSTITUCION"},
            {"leyId": 18, "leyName": "LEY 141 DESPUES CONSTITUCION"},
            {"leyId": 20, "leyName": "ARTICULO 39 LEY 756"},
            {"leyId": 21, "leyName": "LEY 508 5% incremental"},
            {"leyId": 22, "leyName": "LEY 756"},
            {"leyId": 23, "leyName": "Ley 141 Regalia 20%"},
            {"leyId": 24, "leyName": "LEY 756   8%  Incremental"}
        ]
    }