[{
  "label": "Sales",
  "color": "#9cd159",
  "data": [
    ["Jan", 27],
    ["Feb", 82],
    ["Mar", 56],
    ["Apr", 14],
    ["May", 28],
    ["Jun", 77],
    ["Jul", 23],
    ["Aug", 49],
    ["Sep", 81],
    ["Oct", 20]
  ]
},
{
  "label": "Sales2",
  "color": "#FFF000",
  "data": [
    ["Jan", 12],
    ["Feb", 33],
    ["Mar", 77],
    ["Apr", 12],
    ["May", 10],
    ["Jun", 77],
    ["Jul", 23],
    ["Aug", 49],
    ["Sep", 81],
    ["Oct", 20]
  ]
}]